{
  "content": [
    {
      "id": 7,
      "date": "2015-02-05 22:12",
      "type": "review",
      "title": "The Trials and Tribulations of Online Courtship",
      "data": "Some review here",
      "clean_title": "online_dating"
    }
  ],
  "totalElements": 6,
  "totalPages": 6,
  "last": true,
  "sort": null,
  "first": true,
  "numberOfElements": 1,
  "size": 1,
  "number": 0
}