{
  "content": [
    {
      "id": 7,
      "date": "2015-02-05 22:12",
      "type": "review",
      "title": "The Trials and Tribulations of Online Courtship",
      "data": "Some review here",
      "clean_title": "online_dating"
    },
    {
      "id": 4,
      "date": "2015-07-05 20:42",
      "type": "blog",
      "title": "It be like a ghost town round these parts\u2026",
      "data": "Some blog here",
      "clean_title": "ghost_town"
    },
    {
      "id": 69,
      "date": "2015-07-05 20:43",
      "type": "technology",
      "title": "This should be ignored",
      "data": "Seriously, like super ignored",
      "clean_title": "super_ignore"
    }
  ],
  "totalElements": 100,
  "totalPages": 6,
  "last": false,
  "sort": null,
  "first": true,
  "numberOfElements": 3,
  "size": 3,
  "number": 0
}