{
  "content": [
    {
      "id": 4,
      "date": "2015-07-05 20:42",
      "type": "blog",
      "title": "It be like a ghost town round these parts\u2026",
      "data": "Some blog here",
      "clean_title": "ghost_town"
    }
  ],
  "totalElements": 6,
  "totalPages": 6,
  "last": true,
  "sort": null,
  "first": true,
  "numberOfElements": 1,
  "size": 1,
  "number": 0
}